…
The following code chunk selects station name and line, and then uses
`distinct()` to obtain all unique combinations. As a result, the number
of rows in this dataset is the number of unique stations.

``` r
trans_ent %>% 
  select(station_name, line) %>% 
  distinct
```

    ## # A tibble: 465 × 2
    ##    station_name             line    
    ##    <chr>                    <chr>   
    ##  1 25th St                  4 Avenue
    ##  2 36th St                  4 Avenue
    ##  3 45th St                  4 Avenue
    ##  4 53rd St                  4 Avenue
    ##  5 59th St                  4 Avenue
    ##  6 77th St                  4 Avenue
    ##  7 86th St                  4 Avenue
    ##  8 95th St                  4 Avenue
    ##  9 9th St                   4 Avenue
    ## 10 Atlantic Av-Barclays Ctr 4 Avenue
    ## # … with 455 more rows

The next code chunk is similar, but filters according to ADA compliance
as an initial step. This produces a dataframe in which the number of
rows is the number of ADA compliant stations.

``` r
trans_ent %>% 
  filter(ada == TRUE) %>% 
  select(station_name, line) %>% 
  distinct
```

    ## # A tibble: 84 × 2
    ##    station_name                   line           
    ##    <chr>                          <chr>          
    ##  1 Atlantic Av-Barclays Ctr       4 Avenue       
    ##  2 DeKalb Av                      4 Avenue       
    ##  3 Pacific St                     4 Avenue       
    ##  4 Grand Central                  42nd St Shuttle
    ##  5 34th St                        6 Avenue       
    ##  6 47-50th Sts Rockefeller Center 6 Avenue       
    ##  7 Church Av                      6 Avenue       
    ##  8 21st St                        63rd Street    
    ##  9 Lexington Av                   63rd Street    
    ## 10 Roosevelt Island               63rd Street    
    ## # … with 74 more rows
…
``` r
trans_ent %>% 
  pivot_longer(
    route1:route11,
    names_to = "route_num",
    values_to = "route") %>% 
  filter(route == "A") %>% 
  select(station_name, line) %>% 
  distinct
```

    ## # A tibble: 60 × 2
    ##    station_name                  line           
    ##    <chr>                         <chr>          
    ##  1 Times Square                  42nd St Shuttle
    ##  2 125th St                      8 Avenue       
    ##  3 145th St                      8 Avenue       
    ##  4 14th St                       8 Avenue       
    ##  5 168th St - Washington Heights 8 Avenue       
    ##  6 175th St                      8 Avenue       
    ##  7 181st St                      8 Avenue       
    ##  8 190th St                      8 Avenue       
    ##  9 34th St                       8 Avenue       
    ## 10 42nd St                       8 Avenue       
    ## # … with 50 more rows
…
-   clean data

``` r
tidy_mrtw <- mrtw %>%
  mutate(sports_balls = as.integer(round(sports_balls))) %>%
  mutate(type = "Mr.Trash Wheel") %>%
  mutate(year = as.integer(year), dumpster = as.integer(dumpster)) %>%
  select(everything(), weight = weight_tons,volume = volume_cubic_yards) %>%
  drop_na(dumpster)
tidy_mrtw 
```

    ## # A tibble: 547 × 15
    ##    dumps…¹ month  year date                weight volume plast…² polys…³ cigar…⁴
    ##      <int> <chr> <int> <dttm>               <dbl>  <dbl>   <dbl>   <dbl>   <dbl>
    ##  1       1 May    2014 2014-05-16 00:00:00   4.31     18    1450    1820  126000
    ##  2       2 May    2014 2014-05-16 00:00:00   2.74     13    1120    1030   91000
    ##  3       3 May    2014 2014-05-16 00:00:00   3.45     15    2450    3100  105000
    ##  4       4 May    2014 2014-05-17 00:00:00   3.1      15    2380    2730  100000
    ##  5       5 May    2014 2014-05-17 00:00:00   4.06     18     980     870  120000
    ##  6       6 May    2014 2014-05-20 00:00:00   2.71     13    1430    2140   90000
    ##  7       7 May    2014 2014-05-21 00:00:00   1.91      8     910    1090   56000
    ##  8       8 May    2014 2014-05-28 00:00:00   3.7      16    3580    4310  112000
    ##  9       9 June   2014 2014-06-05 00:00:00   2.52     14    2400    2790   98000
    ## 10      10 June   2014 2014-06-11 00:00:00   3.76     18    1340    1730  130000
    ## # … with 537 more rows, 6 more variables: glass_bottles <dbl>,
    ## #   grocery_bags <dbl>, chip_bags <dbl>, sports_balls <int>,
    ## #   homes_powered <dbl>, type <chr>, and abbreviated variable names ¹​dumpster,
    ## #   ²​plastic_bottles, ³​polystyrene, ⁴​cigarette_butts
…
-   clean data

``` r
tidy_prtw <- prtw %>%
  mutate(type = "Professor Trash Wheel") %>%
  mutate(year = as.integer(year), dumpster = as.integer(dumpster)) %>%
  select(everything(), weight = weight_tons,volume = volume_cubic_yards) %>%
  drop_na(dumpster)
tidy_prtw 
```

    ## # A tibble: 94 × 14
    ##    dumps…¹ month  year date                weight volume plast…² polys…³ cigar…⁴
    ##      <int> <chr> <int> <dttm>               <dbl>  <dbl>   <dbl>   <dbl>   <dbl>
    ##  1       1 Janu…  2017 2017-01-02 00:00:00   1.79     15    1950    6080   19700
    ##  2       2 Janu…  2017 2017-01-30 00:00:00   1.58     15    9540   11230   17600
    ##  3       3 Febr…  2017 2017-02-26 00:00:00   2.32     18    8350    9210   12000
    ##  4       4 Febr…  2017 2017-02-26 00:00:00   3.72     15    8590    1030   13000
    ##  5       5 Febr…  2017 2017-02-28 00:00:00   1.45     15    7830    9950   16000
    ##  6       6 March  2017 2017-03-30 00:00:00   1.71     15    8210   10340   14000
    ##  7       7 April  2017 2017-04-01 00:00:00   1.82     15    9830   11020   17000
    ##  8       8 April  2017 2017-04-20 00:00:00   2.37     15    9240    8760   15000
    ##  9       9 May    2017 2017-05-10 00:00:00   2.64     15    9540    8810   17000
    ## 10      10 May    2017 2017-05-26 00:00:00   2.78     15    8230    7800   13000
    ## # … with 84 more rows, 5 more variables: glass_bottles <dbl>,
    ## #   grocery_bags <dbl>, chip_bags <dbl>, homes_powered <dbl>, type <chr>, and
    ## #   abbreviated variable names ¹​dumpster, ²​plastic_bottles, ³​polystyrene,
    ## #   ⁴​cigarette_butts
…
